model_id,hdmi,wi-fi,lumens,resolution,manuf_id
206,1,timesonline.co.uk,2374,9,117
283,2,tripod.com,2392,9,127
366,3,europa.eu,2221,8,197
295,2,google.com.hk,1904,10,79
229,2,merriam-webster.com,2084,7,128
238,2,hubpages.com,2314,1,153
230,2,mit.edu,2886,2,189
378,2,miitbeian.gov.cn,2099,10,197
252,3,accuweather.com,2086,5,136
397,2,chron.com,2370,8,152
327,1,bravesites.com,2637,5,141
275,2,xinhuanet.com,1623,10,171
259,2,buzzfeed.com,1944,2,174
202,3,hao123.com,2295,2,117
315,3,acquirethisname.com,2639,5,110
206,1,free.fr,2336,5,86
293,3,webeden.co.uk,1922,7,196
219,1,google.com,2016,6,105
262,3,guardian.co.uk,1516,7,125
344,3,list-manage.com,1745,5,102
335,3,gravatar.com,2253,7,109
388,1,hibu.com,2582,9,156
390,2,buzzfeed.com,2942,10,128
361,2,acquirethisname.com,2371,1,180
361,3,cam.ac.uk,1962,6,181
256,2,wikia.com,1546,5,185
225,2,nasa.gov,2803,2,126
321,2,usa.gov,1738,4,115
390,1,zdnet.com,1590,5,96
262,1,hhs.gov,2427,5,187
389,2,google.co.uk,1634,10,152
315,2,kickstarter.com,2869,8,155
386,1,utexas.edu,2796,10,120
387,3,prnewswire.com,2966,10,85
287,3,yelp.com,1646,9,93
310,2,livejournal.com,1583,9,159
329,1,oracle.com,2205,5,94
391,3,booking.com,2961,4,67
398,2,narod.ru,2883,2,140
352,1,google.com,2185,5,154
347,3,dropbox.com,2258,7,190
388,3,cisco.com,1844,1,97
254,3,walmart.com,1644,9,186
389,1,usa.gov,2290,3,113
236,1,vinaora.com,2492,2,116
399,3,cbslocal.com,2011,9,171
217,3,yahoo.co.jp,1893,4,187
206,3,europa.eu,1752,10,125
393,2,salon.com,1641,4,193
233,3,hc360.com,2587,4,180
391,2,arizona.edu,1919,5,115
309,2,altervista.org,1560,1,138
341,2,flavors.me,2096,10,178
346,2,psu.edu,2936,4,159
230,1,livejournal.com,2326,1,82
333,2,illinois.edu,2743,1,92
376,1,shutterfly.com,2700,6,182
328,1,list-manage.com,1787,6,160
327,1,webnode.com,1777,4,189
293,3,npr.org,2999,8,196
332,2,adobe.com,1521,9,148
366,1,google.com.br,2262,5,97
325,1,fastcompany.com,2493,8,102
306,1,dailymail.co.uk,2920,4,114
272,1,comsenz.com,2636,9,191
372,3,usda.gov,1623,10,193
356,2,dedecms.com,2990,7,165
292,3,feedburner.com,2603,7,173
325,3,ted.com,2894,1,172
388,2,rediff.com,2152,2,109
252,1,ftc.gov,2549,1,126
230,3,lulu.com,2280,5,163
302,1,blogspot.com,2555,2,94
205,1,illinois.edu,2620,7,56
260,2,jugem.jp,2673,2,194
383,2,spotify.com,2072,10,194
352,3,facebook.com,2441,10,180
210,3,dailymotion.com,2815,10,157
386,3,mediafire.com,1692,3,151
278,2,spiegel.de,2874,7,129
358,3,linkedin.com,1949,7,135
227,3,sakura.ne.jp,2905,2,89
281,2,wordpress.org,2258,4,57
232,3,livejournal.com,1938,4,190
375,2,yolasite.com,1782,3,105
272,1,salon.com,2138,6,92
264,1,networksolutions.com,2147,5,97
201,1,scientificamerican.com,2176,9,170
367,1,intel.com,2115,10,171
320,1,upenn.edu,1794,7,63
309,1,independent.co.uk,2090,10,63
338,2,google.ru,2198,5,79
324,3,addthis.com,2749,2,200
283,3,chronoengine.com,1970,7,117
327,2,tiny.cc,2315,8,81
363,1,4shared.com,2872,7,178
229,3,t.co,2606,4,175
365,1,behance.net,1542,2,189
227,3,artisteer.com,2961,5,146
345,3,domainmarket.com,2129,5,195
